\relax 
\@writefile{toc}{\contentsline {section}{\numberline {1}The optimal labelling density}{1}\protected@file@percent }
\@writefile{toc}{\contentsline {subsection}{\numberline {1.1}Frame duration distribution}{1}\protected@file@percent }
\@writefile{lof}{\contentsline {figure}{\numberline {1}{\ignorespaces Durations of 3 blinking events. The blinking event [1], although being shorter than a frame time, is captured on two frames}}{2}\protected@file@percent }
