\relax 
\@writefile{toc}{\contentsline {section}{\numberline {1}The optimal labelling density}{1}\protected@file@percent }
\@writefile{toc}{\contentsline {subsection}{\numberline {1.1}Frame duration distribution}{1}\protected@file@percent }
\@writefile{lof}{\contentsline {figure}{\numberline {1}{\ignorespaces Temporal durations of 3 blinking events. The blinking event [1], although being shorter than a single frame time, is captured on two frames. The blinking event [2] is not captured on any frame baceuse it is shorter than $H$. The blinking event [3], while being longer than a single frame, is captured only on one frame.}}{2}\protected@file@percent }
\@writefile{toc}{\contentsline {subsection}{\numberline {1.2}Overlapping probability}{4}\protected@file@percent }
\@writefile{toc}{\contentsline {section}{\numberline {2}Effects of kernel functions: bias and induced variance}{7}\protected@file@percent }
\@writefile{toc}{\contentsline {subsection}{\numberline {2.1} General statements }{7}\protected@file@percent }
\@writefile{toc}{\contentsline {subsection}{\numberline {2.2}One dimensional sinusoidal}{8}\protected@file@percent }
\@writefile{toc}{\contentsline {subsection}{\numberline {2.3}Two dimensional sinusoidal}{9}\protected@file@percent }
\@writefile{toc}{\contentsline {subsection}{\numberline {2.4}Appendix}{9}\protected@file@percent }
\@writefile{toc}{\contentsline {section}{\numberline {3}Summation}{10}\protected@file@percent }
\@writefile{toc}{\contentsline {section}{\numberline {4}Averaging}{10}\protected@file@percent }
\@writefile{toc}{\contentsline {subsection}{\numberline {4.1}Pixelization}{10}\protected@file@percent }
\@writefile{toc}{\contentsline {paragraph}{Dependence of the variance on the number of trajectories within the pixel}{11}\protected@file@percent }
\@writefile{toc}{\contentsline {paragraph}{Dependence of the standard deviation on the number of trajectories within the pixel}{12}\protected@file@percent }
\@writefile{toc}{\contentsline {section}{\numberline {5}Uncertainty of the measurement}{12}\protected@file@percent }
\@writefile{toc}{\contentsline {section}{\numberline {6}Measuring the different quantites}{12}\protected@file@percent }
\@writefile{toc}{\contentsline {paragraph}{Binding site density}{12}\protected@file@percent }
\@writefile{toc}{\contentsline {paragraph}{Local excitation intensity}{12}\protected@file@percent }
\@writefile{toc}{\contentsline {paragraph}{Polarization degree}{13}\protected@file@percent }
\@writefile{toc}{\contentsline {paragraph}{Axial position}{13}\protected@file@percent }
\@writefile{toc}{\contentsline {section}{\numberline {7}Összegzés}{13}\protected@file@percent }
